===== Release 5.0.0-rc.2 =====

Commits    Contributors
--------------------------
  3564	Jérôme Kowalczyk
  1024	Fabrice Gangler
   981	Matthieu FAURE
   137	Anthony Lingua
    52	neyo2010
    51	sofien-hamdi
    34	Toufik ELLOUZE
    25	elhamdouni
    25	medsob
    23	ioulachbar
    22	Régis Lapeze
    21	KEBRI Mustapha
    17	diamamp
    15	Lalaina Ralambomanana
    13	Haradwaith
    12	François Poyer
    11	asqatasun-group-SNYK-api-role-developer
     9	Arbab Nazar
     8	ayman abdelghany
     5	Gailor PETEMOYA
     5	sondes22
     4	Alexis
     3	aouchani
     2	Baptiste Le Bail
     2	Barogthor
     2	Jona
     2	Nicola Spanti (RyDroid)
     2	dependabot[bot]
     1	Ben Stewart
     1	Dougal Matthews
     1	Marc Laporte
     1	Mark Sadecki
     1	allrib
     1	bureau-si1a-soda
     1	halna
     1	mickaeldicurzio@gmail.com
     1	nisan

